<?xml version="1.0" standalone="no"?>
<!DOCTYPE svg PUBLIC "-//W3C//DTD SVG 20010904//EN"
 "http://www.w3.org/TR/2001/REC-SVG-20010904/DTD/svg10.dtd">
<svg version="1.0" xmlns="http://www.w3.org/2000/svg"
 width="96.000000pt" height="96.000000pt" viewBox="0 0 96.000000 96.000000"
 preserveAspectRatio="xMidYMid meet">
<metadata>
Created by potrace 1.14, written by Peter Selinger 2001-2017
</metadata>
<g transform="translate(0.000000,96.000000) scale(0.100000,-0.100000)"
fill="#000000" stroke="none">
<path d="M745 871 l-60 -6 -184 -202 -185 -203 -23 22 -23 22 -30 -29 -30 -29
30 -31 31 -32 -51 -62 c-54 -64 -60 -67 -76 -51 -7 7 -19 1 -37 -18 l-27 -28
73 -72 73 -72 28 29 c17 18 24 31 17 35 -19 12 -13 22 51 75 l61 52 33 -32 34
-33 25 24 c30 28 31 37 6 64 l-20 21 180 165 c99 91 190 174 203 185 21 17 25
32 31 118 l7 97 -39 -2 c-21 -1 -65 -4 -98 -7z m43 -117 c-3 -32 -21 -52 -193
-209 -175 -160 -191 -172 -207 -158 -16 15 -14 19 35 72 28 31 108 118 177
194 112 124 127 137 158 137 32 0 33 -1 30 -36z"/>
</g>
</svg>
